{
  "/js/app.js": "/js/app.js",
  "/css/app.css": "/css/app.css",
  "/css/public.css": "/css/public.css",
  "/js/screens/signup_lender.js": "/js/screens/signup_lender.js",
  "/js/screens/login.js": "/js/screens/login.js"
}